# Format: netid, week, Activity (Read/Watch/Do/Coding/...), time in minutes (e.g. 2 hours and 45 minutes would be recorded as 165)
# example row: pjm52, week1, Read, 180

bt155, week3-1, Read, 40
bt155, week3-1, Write, 30
bt155, week3-1, Read, 35
bt155, week3-1, Write, 20
bt155, week3-2, Read, 90
bt155, week3-2, Write, 60
bt155, week3-3, Read, 70
bt155, week3-3, Write, 30
